%YAML 1.1
%TAG !u! tag:unity3d.com,2011:
--- !u!1045 &1
EditorBuildSettings:
  m_ObjectHideFlags: 0
  serializedVersion: 2
  m_Scenes:
  - enabled: 1
    path: Assets/Scenes/MenuScene.unity
    guid: 200edc28bb7a4d946b12f74bbeab7b3c
  - enabled: 1
    path: Assets/Scenes/GameScene.unity
    guid: 7896b8d9ad38bda46927da3d3981cacd
  m_configObjects: {}
